Garfield County Home Sales 2014 - 2016
…
garfield_county_data %>% arrange(desc(Sale_Price)) %>% select(c("Sale_Price", "Location", "Classification", "Bedrooms", "Square_Feet", "Price_per_SF")) %>% head(30)

## # A tibble: 30 x 6
##    Sale_Price Location   Classification Bedrooms Square_Feet Price_per_SF
##         <int> <chr>      <chr>             <dbl>       <dbl>        <dbl>
##  1    2800000 CARBONDALE Single Family         2         764        3665.
##  2    2800000 CARBONDALE Single Family         2        3906         717.
##  3    2750000 CARBONDALE Single Family         0         680        4044.
##  4    2750000 CARBONDALE Single Family         3        3648         754.
##  5    2200000 RIFLE      Townhome              3        1417        1553.
##  6    2200000 RIFLE      Townhome              3        1417        1553.
##  7    2200000 RIFLE      Townhome              3        1417        1553.
##  8    2200000 RIFLE      Townhome              3        1417        1553.
##  9    2200000 RIFLE      Townhome              3        1417        1553.
## 10    2200000 RIFLE      Townhome              3        1417        1553.
## # ... with 20 more rows

Were there really multiple sales of townhomes in Rifle at $2.2M? Seems suspicious that all sales are identical and on the same date. Will need to read-in the original dataset to find out.

garfield_county_data %>% filter(Sale_Price == 2200000 & Location == "RIFLE")

## # A tibble: 23 x 13
##    Index Inspection_Date Sale_Date  Sale_Price Location Classification
##    <int> <date>          <date>          <int> <chr>    <chr>         
##  1   503 2014-12-26      2015-01-30    2200000 RIFLE    Townhome      
##  2   505 2014-12-26      2015-01-30    2200000 RIFLE    Townhome      
##  3   507 2014-12-26      2015-01-30    2200000 RIFLE    Townhome      
##  4   509 2014-12-26      2015-01-30    2200000 RIFLE    Townhome      
##  5   511 2014-12-26      2015-01-30    2200000 RIFLE    Townhome      
##  6   512 2014-12-26      2015-01-30    2200000 RIFLE    Townhome      
##  7   514 2014-12-26      2015-01-30    2200000 RIFLE    Townhome      
##  8   516 2014-12-26      2015-01-30    2200000 RIFLE    Townhome      
##  9   518 2014-12-26      2015-01-30    2200000 RIFLE    Townhome      
## 10   520 2014-12-26      2015-01-30    2200000 RIFLE    Townhome      
## # ... with 13 more rows, and 7 more variables: Architectural_Style <chr>,
## #   Year_Built <dbl>, Bedrooms <dbl>, Baths <dbl>, Square_Feet <dbl>,
## #   Count <int>, Price_per_SF <dbl>
…
garfield_county_condos %>% filter(`Sale Price` == "$2,200,000" & Location == "RIFLE")

## # A tibble: 23 x 14
##    Account `Parcel Number` Reception `Sale Date` `Sale Price`
##    <chr>   <chr>               <int> <chr>       <chr>       
##  1 R082978 217704355001       858946 1/30/2015   $2,200,000  
##  2 R082979 217704355002       858946 1/30/2015   $2,200,000  
##  3 R082981 217704355004       858946 1/30/2015   $2,200,000  
##  4 R082982 217704356001       858946 1/30/2015   $2,200,000  
##  5 R082983 217704356002       858946 1/30/2015   $2,200,000  
##  6 R082985 217704356004       858946 1/30/2015   $2,200,000  
##  7 R082986 217704357001       858946 1/30/2015   $2,200,000  
##  8 R082987 217704357002       858946 1/30/2015   $2,200,000  
##  9 R082988 217704357003       858946 1/30/2015   $2,200,000  
## 10 R082989 217704357004       858946 1/30/2015   $2,200,000  
## # ... with 13 more rows, and 9 more variables: `Situs Address` <chr>,
## #   Location <chr>, Classification <chr>, `Architectural Style` <chr>,
## #   `Actual Year Built` <int>, Bedrooms <int>, Baths <dbl>, `Heated
## #   Area` <dbl>, Legal <chr>
…
## # A tibble: 6 x 2
##   Location   data               
##   <chr>      <list>             
## 1 CARBONDALE <tibble [376  12]>
## 2 GLENWOOD   <tibble [440  12]>
## 3 NEW CASTLE <tibble [326  12]>
## 4 PARACHUTE  <tibble [201  12]>
## 5 RIFLE      <tibble [393  12]>
## 6 SILT       <tibble [223  12]>

Check this by printing the data nested for New Castle

no_zeros_nested$data[[3]]

## # A tibble: 326 x 12
##    Index Inspection_Date Sale_Date  Sale_Price Classification
##    <int> <date>          <date>          <int> <chr>         
##  1   316 2015-01-20      2015-02-24     115500 Condo         
##  2   317 2015-06-26      2015-07-31     115000 Condo         
##  3   318 2016-05-11      2016-06-15     139500 Condo         
##  4   319 2014-06-25      2014-07-30     122000 Condo         
##  5   320 2015-07-28      2015-09-01     115000 Condo         
##  6   321 2015-06-12      2015-07-17      60000 Condo         
##  7   322 2015-10-19      2015-11-23     150000 Condo         
##  8   323 2015-09-23      2015-10-28     130000 Townhome      
##  9   324 2015-07-10      2015-08-14     129000 Townhome      
## 10   325 2014-08-11      2014-09-15     119000 Townhome      
## # ... with 316 more rows, and 7 more variables: Architectural_Style <chr>,
## #   Year_Built <dbl>, Bedrooms <dbl>, Baths <dbl>, Square_Feet <dbl>,
## #   Count <int>, Price_per_SF <dbl>

If we want to unnest the nested we can do it like this:

unnest(no_zeros_nested)

## # A tibble: 1,959 x 13
##    Location Index Inspection_Date Sale_Date  Sale_Price Classification
##    <chr>    <int> <date>          <date>          <int> <chr>         
##  1 CARBOND     0 2014-07-04      2014-08-08     210000 Condo         
##  2 CARBOND     1 2015-11-06      2015-12-11     265000 Condo         
##  3 CARBOND     2 2015-03-10      2015-04-14     308500 Condo         
##  4 CARBOND     3 2015-12-16      2016-01-20     160000 Condo         
##  5 CARBOND     4 2016-03-04      2016-04-08     340000 Condo         
##  6 CARBOND     5 2014-05-27      2014-07-01      45000 Condo         
##  7 CARBOND     6 2015-07-24      2015-08-28     251200 Condo         
##  8 CARBOND     7 2016-05-03      2016-06-07     275500 Condo         
##  9 CARBOND     8 2015-04-27      2015-06-01     323000 Condo         
## 10 CARBOND     9 2015-11-12      2015-12-17     323000 Condo         
## # ... with 1,949 more rows, and 7 more variables:
## #   Architectural_Style <chr>, Year_Built <dbl>, Bedrooms <dbl>,
## #   Baths <dbl>, Square_Feet <dbl>, Count <int>, Price_per_SF <dbl>
…
# Equivalent method outlined by David Robinson used above would be:
#by_location <- no_zeros %>% 
  #nest(-Location)

According to Wickam, there is no great way to explore the nested dataframes. So the best thing we can do is inspect one of them:

by_location$data[[4]] #Parachute

## # A tibble: 201 x 12
##    Index Inspection_Date Sale_Date  Sale_Price Classification
##    <int> <date>          <date>          <int> <chr>         
##  1   429 2014-09-12      2014-10-17      65500 Townhome      
##  2   430 2016-05-26      2016-06-30     110000 Townhome      
##  3   431 2016-01-28      2016-03-03     106000 Townhome      
##  4   432 2015-09-21      2015-10-26      67000 Townhome      
##  5   433 2015-06-01      2015-07-06     140000 Townhome      
##  6   434 2015-02-18      2015-03-25      89270 Townhome      
##  7   435 2015-10-27      2015-12-01     110000 Townhome      
##  8   436 2015-09-18      2015-10-23     122000 Townhome      
##  9   437 2015-05-27      2015-07-01     243842 Townhome      
## 10   438 2015-04-29      2015-06-03     147000 Townhome      
## # ... with 191 more rows, and 7 more variables: Architectural_Style <chr>,
## #   Year_Built <dbl>, Bedrooms <dbl>, Baths <dbl>, Square_Feet <dbl>,
## #   Count <int>, Price_per_SF <dbl>
…
How can you plot a list of dataframes? If we want to plot the residuals we will need to unnest this list of dataframes, like so:

resids <- unnest(by_location, resids)
resids

## # A tibble: 1,959 x 14
##    Location Index Inspection_Date Sale_Date  Sale_Price Classification
##    <chr>    <int> <date>          <date>          <int> <chr>         
##  1 CARBOND     0 2014-07-04      2014-08-08     210000 Condo         
##  2 CARBOND     1 2015-11-06      2015-12-11     265000 Condo         
##  3 CARBOND     2 2015-03-10      2015-04-14     308500 Condo         
##  4 CARBOND     3 2015-12-16      2016-01-20     160000 Condo         
##  5 CARBOND     4 2016-03-04      2016-04-08     340000 Condo         
##  6 CARBOND     5 2014-05-27      2014-07-01      45000 Condo         
##  7 CARBOND     6 2015-07-24      2015-08-28     251200 Condo         
##  8 CARBOND     7 2016-05-03      2016-06-07     275500 Condo         
##  9 CARBOND     8 2015-04-27      2015-06-01     323000 Condo         
## 10 CARBOND     9 2015-11-12      2015-12-17     323000 Condo         
## # ... with 1,949 more rows, and 8 more variables:
## #   Architectural_Style <chr>, Year_Built <dbl>, Bedrooms <dbl>,
## #   Baths <dbl>, Square_Feet <dbl>, Count <int>, Price_per_SF <dbl>,
## #   resid <dbl>
…
What about augment? Can we apply the 4-step process to this too?

train_augment <- train %>%
  nest(-Location) %>% 
  mutate(models = map(data, ~lm(Sale_Price ~ Square_Feet, .))) %>% 
  mutate(augment = map(models, broom::augment)) %>% 
  unnest(augment)
train_augment

## # A tibble: 1,567 x 10
##    Location Sale_Price Square_Feet .fitted .se.fit  .resid    .hat .sigma
##    <chr>         <int>       <dbl>   <dbl>   <dbl>   <dbl>   <dbl>  <dbl>
##  1 RIFLE        137000        1920 317212.  28722. -1.80e5 0.00395 4.58e5
##  2 RIFLE        228000        1354 314557.  29650. -8.66e4 0.00421 4.58e5
##  3 RIFLE        285000        2405 319487.  44442. -3.45e4 0.00946 4.58e5
##  4 RIFLE        305000        2624 320515.  53445. -1.55e4 0.0137  4.58e5
##  5 RIFLE        225000        2808 321378.  61407. -9.64e4 0.0181  4.58e5
##  6 RIFLE         86000        1360 314585.  29507. -2.29e5 0.00417 4.58e5
##  7 RIFLE        259000        2360 319276.  42684. -6.03e4 0.00872 4.58e5
##  8 RIFLE        124900        1632 315861.  25779. -1.91e5 0.00318 4.58e5
##  9 RIFLE        377000        2568 320252.  51084.  5.67e4 0.0125  4.58e5
## 10 RIFLE        220000        1272 314173.  31807. -9.42e4 0.00484 4.58e5
## # ... with 1,557 more rows, and 2 more variables: .cooksd <dbl>,
## #   .std.resid <dbl>

What about augment? Can we apply the 4-step process to this too?

test_augment <- test %>%
  nest(-Location) %>% 
  mutate(models = map(data, ~lm(Sale_Price ~ Square_Feet, .))) %>% 
  mutate(augment = map(models, broom::augment)) %>% 
  unnest(augment)
test_augment

## # A tibble: 392 x 10
##    Location Sale_Price Square_Feet .fitted .se.fit  .resid   .hat .sigma
##    <chr>         <int>       <dbl>   <dbl>   <dbl>   <dbl>  <dbl>  <dbl>
##  1 CARBOND     345000        1099 349221.  35633. -4.22e3 0.0245 2.29e5
##  2 CARBOND     229000        1164 364706.  34737. -1.36e5 0.0233 2.29e5
##  3 CARBOND     307000        1188 370424.  34414. -6.34e4 0.0229 2.29e5
##  4 CARBOND     280000        1200 373282.  34254. -9.33e4 0.0226 2.29e5
##  5 CARBOND     355000        1200 373282.  34254. -1.83e4 0.0226 2.29e5
##  6 CARBOND     379000        1210 375665.  34121.  3.34e3 0.0225 2.29e5
##  7 CARBOND     385000        1210 375665.  34121.  9.34e3 0.0225 2.29e5
##  8 CARBOND     280000        1215 376856.  34055. -9.69e4 0.0224 2.29e5
##  9 CARBOND     239000        1215 376856.  34055. -1.38e5 0.0224 2.29e5
## 10 CARBOND     265000        1224 379000.  33936. -1.14e5 0.0222 2.29e5
## # ... with 382 more rows, and 2 more variables: .cooksd <dbl>,
## #   .std.resid <dbl>
…
