Linear Regression v3
…
# Equivalent method outlined by David Robinson used above would be:
#by_location <- no_zeros %>% 
  #nest(-Location)

According to Wickam, there is no great way to explore the nested dataframes. So the best thing we can do is inspect one of them:

by_location$data[[4]] #Parachute

## # A tibble: 201 x 12
##    Index Inspection_Date Sale_Date  Sale_Price Classification
##    <int> <date>          <date>          <int> <chr>         
##  1   429 2014-09-12      2014-10-17      65500 Townhome      
##  2   430 2016-05-26      2016-06-30     110000 Townhome      
##  3   431 2016-01-28      2016-03-03     106000 Townhome      
##  4   432 2015-09-21      2015-10-26      67000 Townhome      
##  5   433 2015-06-01      2015-07-06     140000 Townhome      
##  6   434 2015-02-18      2015-03-25      89270 Townhome      
##  7   435 2015-10-27      2015-12-01     110000 Townhome      
##  8   436 2015-09-18      2015-10-23     122000 Townhome      
##  9   437 2015-05-27      2015-07-01     243842 Townhome      
## 10   438 2015-04-29      2015-06-03     147000 Townhome      
## # ... with 191 more rows, and 7 more variables: Architectural_Style <chr>,
## #   Year_Built <dbl>, Bedrooms <int>, Baths <dbl>, Square_Feet <dbl>,
## #   Count <int>, Price_per_SF <dbl>
…
How can you plot a list of dataframes? If we want to plot the residuals we will need to unnest this list of dataframes, like so:

resids <- unnest(by_location, resids)
resids

## # A tibble: 1,936 x 14
##    Location Index Inspection_Date Sale_Date  Sale_Price Classification
##    <chr>    <int> <date>          <date>          <int> <chr>         
##  1 CARBOND     0 2014-07-04      2014-08-08     210000 Condo         
##  2 CARBOND     1 2015-11-06      2015-12-11     265000 Condo         
##  3 CARBOND     2 2015-03-10      2015-04-14     308500 Condo         
##  4 CARBOND     3 2015-12-16      2016-01-20     160000 Condo         
##  5 CARBOND     4 2016-03-04      2016-04-08     340000 Condo         
##  6 CARBOND     5 2014-05-27      2014-07-01      45000 Condo         
##  7 CARBOND     6 2015-07-24      2015-08-28     251200 Condo         
##  8 CARBOND     7 2016-05-03      2016-06-07     275500 Condo         
##  9 CARBOND     8 2015-04-27      2015-06-01     323000 Condo         
## 10 CARBOND     9 2015-11-12      2015-12-17     323000 Condo         
## # ... with 1,926 more rows, and 8 more variables:
## #   Architectural_Style <chr>, Year_Built <dbl>, Bedrooms <int>,
## #   Baths <dbl>, Square_Feet <dbl>, Count <int>, Price_per_SF <dbl>,
## #   resid <dbl>
…
What about augment? Can we apply the 4-step process to this too?

train_augment <- train %>%
  nest(-Location) %>% 
  mutate(models = map(data, ~lm(Sale_Price ~ Square_Feet + Baths, .))) %>% 
  mutate(augment = map(models, broom::augment)) %>% 
  unnest(augment)
train_augment

## # A tibble: 1,548 x 11
##    Location Sale_Price Square_Feet Baths .fitted .se.fit  .resid    .hat
##    <chr>         <int>       <dbl> <dbl>   <dbl>   <dbl>   <dbl>   <dbl>
##  1 SILT         190000        1274  2.5  217468.  14348. -27468. 0.0276 
##  2 SILT         240000        1588  2    252661.   6859. -12661. 0.00630
##  3 SILT         289000        1766  2.5  270016.   9206.  18984. 0.0113 
##  4 SILT         179000        1674  2    261846.   6667. -82846. 0.00595
##  5 SILT         455000        2613  3    358821.  11101.  96179. 0.0165 
##  6 SILT         187500        1230  2    214426.   9431. -26926. 0.0119 
##  7 SILT         304000        1732  2.5  266384.   9490.  37616. 0.0121 
##  8 SILT         540000        4348  3.25 543297.  25311.  -3297. 0.0857 
##  9 SILT         295000        1633  2    257467.   6732.  37533. 0.00607
## 10 SILT         487500        3164  2.75 418498.  14368.  69002. 0.0276 
## # ... with 1,538 more rows, and 3 more variables: .sigma <dbl>,
## #   .cooksd <dbl>, .std.resid <dbl>

What about augment? Can we apply the 4-step process to this too?

test_augment <- test %>%
  nest(-Location) %>% 
  mutate(models = map(data, ~lm(Sale_Price ~ Square_Feet + Baths, .))) %>% 
  mutate(augment = map(models, broom::augment)) %>% 
  unnest(augment)
test_augment

## # A tibble: 388 x 11
##    Location Sale_Price Square_Feet Baths .fitted .se.fit  .resid   .hat
##    <chr>         <int>       <dbl> <dbl>   <dbl>   <dbl>   <dbl>  <dbl>
##  1 CARBOND     290000        1200  1.7  340688.  36610. -50688. 0.0330
##  2 CARBOND     354000        1200  2.5  321623.  42374.  32377. 0.0442
##  3 CARBOND     339000        1200  2.5  321623.  42374.  17377. 0.0442
##  4 CARBOND     375000        1210  2.25 330183.  34549.  44817. 0.0294
##  5 CARBOND     385000        1210  2.25 330183.  34549.  54817. 0.0294
##  6 CARBOND     280000        1215  2    337441.  31911. -57441. 0.0251
##  7 CARBOND     239000        1215  2    337441.  31911. -98441. 0.0251
##  8 CARBOND     265000        1224  1.5  351698.  43637. -86698. 0.0469
##  9 CARBOND     315500        1260  1.75 355106.  35702. -39606. 0.0314
## 10 CARBOND     387500        1326  2    366320.  31087.  21180. 0.0238
## # ... with 378 more rows, and 3 more variables: .sigma <dbl>,
## #   .cooksd <dbl>, .std.resid <dbl>
